{
"web":
{

"client_id":"482524863387-dvlul4bkn96teqq8cfb578bd5nlr9fs7.apps.googleusercontent.com",
"project_id":"calenderapi-157111","auth_uri":"https://accounts.google.com/o/oauth2/auth",
"token_uri":"https://accounts.google.com/o/oauth2/token",
"auth_provider_x509_cert_url":"https://www.googleapis.com/oauth2/v1/certs",
"client_secret":"gcc35yZnDFBXNoCVnHHQiinD",
"redirect_uris":
[
"http://liadni.myweb.jce.ac.il/calender",
"http://liadni.myweb.jce.ac.il/calender/oauth2callback.php"
]
}
}